simulation/qsim/projeto.msim.vcd
$comment
	File created using the following command:
		vcd file projeto.msim.vcd -direction
$end
$date
	Sun Aug 27 18:37:29 2023
$end
$version
	ModelSim Version 2020.1
$end
$timescale
	1ps
$end

$scope module projeto_vhd_vec_tst $end
$var wire 1 ! clk $end
$var wire 1 " ds1 [6] $end
$var wire 1 # ds1 [5] $end
$var wire 1 $ ds1 [4] $end
$var wire 1 % ds1 [3] $end
$var wire 1 & ds1 [2] $end
$var wire 1 ' ds1 [1] $end
$var wire 1 ( ds1 [0] $end
$var wire 1 ) ds2 [6] $end
$var wire 1 * ds2 [5] $end
$var wire 1 + ds2 [4] $end
$var wire 1 , ds2 [3] $end
$var wire 1 - ds2 [2] $end
$var wire 1 . ds2 [1] $end
$var wire 1 / ds2 [0] $end
$var wire 1 0 rst $end

$scope module i1 $end
$var wire 1 1 gnd $end
$var wire 1 2 vcc $end
$var wire 1 3 unknown $end
$var wire 1 4 devoe $end
$var wire 1 5 devclrn $end
$var wire 1 6 devpor $end
$var wire 1 7 ww_devoe $end
$var wire 1 8 ww_devclrn $end
$var wire 1 9 ww_devpor $end
$var wire 1 : ww_clk $end
$var wire 1 ; ww_rst $end
$var wire 1 < ww_ds1 [6] $end
$var wire 1 = ww_ds1 [5] $end
$var wire 1 > ww_ds1 [4] $end
$var wire 1 ? ww_ds1 [3] $end
$var wire 1 @ ww_ds1 [2] $end
$var wire 1 A ww_ds1 [1] $end
$var wire 1 B ww_ds1 [0] $end
$var wire 1 C ww_ds2 [6] $end
$var wire 1 D ww_ds2 [5] $end
$var wire 1 E ww_ds2 [4] $end
$var wire 1 F ww_ds2 [3] $end
$var wire 1 G ww_ds2 [2] $end
$var wire 1 H ww_ds2 [1] $end
$var wire 1 I ww_ds2 [0] $end
$var wire 1 J \clk~input_o\ $end
$var wire 1 K \Add0~0_combout\ $end
$var wire 1 L \clock:clk_counter[0]~q\ $end
$var wire 1 M \Add0~1\ $end
$var wire 1 N \Add0~2_combout\ $end
$var wire 1 O \Add0~7\ $end
$var wire 1 P \Add0~8_combout\ $end
$var wire 1 Q \clock:clk_counter[4]~q\ $end
$var wire 1 R \Add0~9\ $end
$var wire 1 S \Add0~10_combout\ $end
$var wire 1 T \clock:clk_counter[5]~q\ $end
$var wire 1 U \Add0~11\ $end
$var wire 1 V \Add0~12_combout\ $end
$var wire 1 W \clock:clk_counter[6]~q\ $end
$var wire 1 X \Add0~13\ $end
$var wire 1 Y \Add0~14_combout\ $end
$var wire 1 Z \clock:clk_counter[7]~q\ $end
$var wire 1 [ \Add0~15\ $end
$var wire 1 \ \Add0~16_combout\ $end
$var wire 1 ] \clock:clk_counter[8]~q\ $end
$var wire 1 ^ \Add0~17\ $end
$var wire 1 _ \Add0~18_combout\ $end
$var wire 1 ` \clock:clk_counter[9]~q\ $end
$var wire 1 a \Add0~19\ $end
$var wire 1 b \Add0~20_combout\ $end
$var wire 1 c \clock:clk_counter[10]~q\ $end
$var wire 1 d \Add0~21\ $end
$var wire 1 e \Add0~22_combout\ $end
$var wire 1 f \clock:clk_counter[11]~q\ $end
$var wire 1 g \Add0~23\ $end
$var wire 1 h \Add0~24_combout\ $end
$var wire 1 i \clock:clk_counter[12]~q\ $end
$var wire 1 j \Add0~25\ $end
$var wire 1 k \Add0~26_combout\ $end
$var wire 1 l \clock:clk_counter[13]~q\ $end
$var wire 1 m \Add0~27\ $end
$var wire 1 n \Add0~28_combout\ $end
$var wire 1 o \clock:clk_counter[14]~q\ $end
$var wire 1 p \Add0~29\ $end
$var wire 1 q \Add0~30_combout\ $end
$var wire 1 r \clock:clk_counter[15]~q\ $end
$var wire 1 s \Add0~31\ $end
$var wire 1 t \Add0~32_combout\ $end
$var wire 1 u \clock:clk_counter[16]~q\ $end
$var wire 1 v \Add0~33\ $end
$var wire 1 w \Add0~34_combout\ $end
$var wire 1 x \clock:clk_counter[17]~q\ $end
$var wire 1 y \Add0~35\ $end
$var wire 1 z \Add0~36_combout\ $end
$var wire 1 { \clock:clk_counter[18]~q\ $end
$var wire 1 | \Add0~37\ $end
$var wire 1 } \Add0~38_combout\ $end
$var wire 1 ~ \clock:clk_counter[19]~q\ $end
$var wire 1 !! \Equal0~5_combout\ $end
$var wire 1 "! \Add0~39\ $end
$var wire 1 #! \Add0~40_combout\ $end
$var wire 1 $! \clock:clk_counter[20]~q\ $end
$var wire 1 %! \Add0~41\ $end
$var wire 1 &! \Add0~42_combout\ $end
$var wire 1 '! \clock:clk_counter[21]~q\ $end
$var wire 1 (! \Add0~43\ $end
$var wire 1 )! \Add0~44_combout\ $end
$var wire 1 *! \clock:clk_counter[22]~q\ $end
$var wire 1 +! \Add0~45\ $end
$var wire 1 ,! \Add0~46_combout\ $end
$var wire 1 -! \clock:clk_counter[23]~q\ $end
$var wire 1 .! \Equal0~6_combout\ $end
$var wire 1 /! \Add0~47\ $end
$var wire 1 0! \Add0~48_combout\ $end
$var wire 1 1! \clock:clk_counter[24]~q\ $end
$var wire 1 2! \Add0~49\ $end
$var wire 1 3! \Add0~50_combout\ $end
$var wire 1 4! \clock:clk_counter[25]~q\ $end
$var wire 1 5! \Equal0~7_combout\ $end
$var wire 1 6! \clk_counter~1_combout\ $end
$var wire 1 7! \clock:clk_counter[1]~q\ $end
$var wire 1 8! \Add0~3\ $end
$var wire 1 9! \Add0~4_combout\ $end
$var wire 1 :! \clock:clk_counter[2]~q\ $end
$var wire 1 ;! \Add0~5\ $end
$var wire 1 <! \Add0~6_combout\ $end
$var wire 1 =! \clk_counter~0_combout\ $end
$var wire 1 >! \clock:clk_counter[3]~q\ $end
$var wire 1 ?! \Equal0~0_combout\ $end
$var wire 1 @! \Equal0~1_combout\ $end
$var wire 1 A! \Equal0~2_combout\ $end
$var wire 1 B! \Equal0~3_combout\ $end
$var wire 1 C! \Equal0~4_combout\ $end
$var wire 1 D! \clk_out~0_combout\ $end
$var wire 1 E! \clk_out~q\ $end
$var wire 1 F! \number[0]~8_combout\ $end
$var wire 1 G! \number[0]~9\ $end
$var wire 1 H! \number[1]~10_combout\ $end
$var wire 1 I! \rst~input_o\ $end
$var wire 1 J! \number[1]~11\ $end
$var wire 1 K! \number[2]~12_combout\ $end
$var wire 1 L! \~GND~combout\ $end
$var wire 1 M! \number[2]~13\ $end
$var wire 1 N! \number[3]~14_combout\ $end
$var wire 1 O! \number[3]~15\ $end
$var wire 1 P! \number[4]~16_combout\ $end
$var wire 1 Q! \number[4]~17\ $end
$var wire 1 R! \number[5]~18_combout\ $end
$var wire 1 S! \number[5]~19\ $end
$var wire 1 T! \number[6]~20_combout\ $end
$var wire 1 U! \count_up~0_combout\ $end
$var wire 1 V! \number[6]~21\ $end
$var wire 1 W! \number[7]~22_combout\ $end
$var wire 1 X! \count_up~1_combout\ $end
$var wire 1 Y! \count_up~2_combout\ $end
$var wire 1 Z! \count_up~3_combout\ $end
$var wire 1 [! \count_up~q\ $end
$var wire 1 \! \Mod0|auto_generated|divider|divider|add_sub_3_result_int[1]~1\ $end
$var wire 1 ]! \Mod0|auto_generated|divider|divider|add_sub_3_result_int[2]~3\ $end
$var wire 1 ^! \Mod0|auto_generated|divider|divider|add_sub_3_result_int[3]~5\ $end
$var wire 1 _! \Mod0|auto_generated|divider|divider|add_sub_3_result_int[4]~6_combout\ $end
$var wire 1 `! \Mod0|auto_generated|divider|divider|StageOut[27]~54_combout\ $end
$var wire 1 a! \Mod0|auto_generated|divider|divider|add_sub_3_result_int[3]~4_combout\ $end
$var wire 1 b! \Mod0|auto_generated|divider|divider|StageOut[27]~55_combout\ $end
$var wire 1 c! \Mod0|auto_generated|divider|divider|StageOut[26]~56_combout\ $end
$var wire 1 d! \Mod0|auto_generated|divider|divider|add_sub_3_result_int[2]~2_combout\ $end
$var wire 1 e! \Mod0|auto_generated|divider|divider|StageOut[26]~57_combout\ $end
$var wire 1 f! \Mod0|auto_generated|divider|divider|StageOut[25]~58_combout\ $end
$var wire 1 g! \Mod0|auto_generated|divider|divider|add_sub_3_result_int[1]~0_combout\ $end
$var wire 1 h! \Mod0|auto_generated|divider|divider|StageOut[25]~59_combout\ $end
$var wire 1 i! \Mod0|auto_generated|divider|divider|StageOut[24]~60_combout\ $end
$var wire 1 j! \Mod0|auto_generated|divider|divider|StageOut[24]~61_combout\ $end
$var wire 1 k! \Mod0|auto_generated|divider|divider|add_sub_4_result_int[1]~1\ $end
$var wire 1 l! \Mod0|auto_generated|divider|divider|add_sub_4_result_int[2]~3\ $end
$var wire 1 m! \Mod0|auto_generated|divider|divider|add_sub_4_result_int[3]~5\ $end
$var wire 1 n! \Mod0|auto_generated|divider|divider|add_sub_4_result_int[4]~6_combout\ $end
$var wire 1 o! \Mod0|auto_generated|divider|divider|add_sub_4_result_int[4]~7\ $end
$var wire 1 p! \Mod0|auto_generated|divider|divider|add_sub_4_result_int[5]~8_combout\ $end
$var wire 1 q! \Mod0|auto_generated|divider|divider|StageOut[36]~99_combout\ $end
$var wire 1 r! \Mod0|auto_generated|divider|divider|StageOut[36]~62_combout\ $end
$var wire 1 s! \Mod0|auto_generated|divider|divider|StageOut[35]~100_combout\ $end
$var wire 1 t! \Mod0|auto_generated|divider|divider|add_sub_4_result_int[3]~4_combout\ $end
$var wire 1 u! \Mod0|auto_generated|divider|divider|StageOut[35]~63_combout\ $end
$var wire 1 v! \Mod0|auto_generated|divider|divider|StageOut[34]~101_combout\ $end
$var wire 1 w! \Mod0|auto_generated|divider|divider|add_sub_4_result_int[2]~2_combout\ $end
$var wire 1 x! \Mod0|auto_generated|divider|divider|StageOut[34]~64_combout\ $end
$var wire 1 y! \Mod0|auto_generated|divider|divider|StageOut[33]~65_combout\ $end
$var wire 1 z! \Mod0|auto_generated|divider|divider|add_sub_4_result_int[1]~0_combout\ $end
$var wire 1 {! \Mod0|auto_generated|divider|divider|StageOut[33]~66_combout\ $end
$var wire 1 |! \Mod0|auto_generated|divider|divider|StageOut[32]~67_combout\ $end
$var wire 1 }! \Mod0|auto_generated|divider|divider|StageOut[32]~68_combout\ $end
$var wire 1 ~! \Mod0|auto_generated|divider|divider|add_sub_5_result_int[1]~1\ $end
$var wire 1 !" \Mod0|auto_generated|divider|divider|add_sub_5_result_int[2]~3\ $end
$var wire 1 "" \Mod0|auto_generated|divider|divider|add_sub_5_result_int[3]~5\ $end
$var wire 1 #" \Mod0|auto_generated|divider|divider|add_sub_5_result_int[4]~7\ $end
$var wire 1 $" \Mod0|auto_generated|divider|divider|add_sub_5_result_int[5]~9\ $end
$var wire 1 %" \Mod0|auto_generated|divider|divider|add_sub_5_result_int[6]~10_combout\ $end
$var wire 1 &" \Mod0|auto_generated|divider|divider|StageOut[45]~92_combout\ $end
$var wire 1 '" \Mod0|auto_generated|divider|divider|add_sub_5_result_int[5]~8_combout\ $end
$var wire 1 (" \Mod0|auto_generated|divider|divider|StageOut[45]~69_combout\ $end
$var wire 1 )" \Mod0|auto_generated|divider|divider|StageOut[44]~93_combout\ $end
$var wire 1 *" \Mod0|auto_generated|divider|divider|add_sub_5_result_int[4]~6_combout\ $end
$var wire 1 +" \Mod0|auto_generated|divider|divider|StageOut[44]~70_combout\ $end
$var wire 1 ," \Mod0|auto_generated|divider|divider|StageOut[43]~94_combout\ $end
$var wire 1 -" \Mod0|auto_generated|divider|divider|add_sub_5_result_int[3]~4_combout\ $end
$var wire 1 ." \Mod0|auto_generated|divider|divider|StageOut[43]~71_combout\ $end
$var wire 1 /" \Mod0|auto_generated|divider|divider|StageOut[42]~102_combout\ $end
$var wire 1 0" \Mod0|auto_generated|divider|divider|add_sub_5_result_int[2]~2_combout\ $end
$var wire 1 1" \Mod0|auto_generated|divider|divider|StageOut[42]~72_combout\ $end
$var wire 1 2" \Mod0|auto_generated|divider|divider|StageOut[41]~73_combout\ $end
$var wire 1 3" \Mod0|auto_generated|divider|divider|add_sub_5_result_int[1]~0_combout\ $end
$var wire 1 4" \Mod0|auto_generated|divider|divider|StageOut[41]~74_combout\ $end
$var wire 1 5" \Mod0|auto_generated|divider|divider|StageOut[40]~75_combout\ $end
$var wire 1 6" \Mod0|auto_generated|divider|divider|StageOut[40]~76_combout\ $end
$var wire 1 7" \Mod0|auto_generated|divider|divider|add_sub_6_result_int[1]~1\ $end
$var wire 1 8" \Mod0|auto_generated|divider|divider|add_sub_6_result_int[2]~3\ $end
$var wire 1 9" \Mod0|auto_generated|divider|divider|add_sub_6_result_int[3]~5\ $end
$var wire 1 :" \Mod0|auto_generated|divider|divider|add_sub_6_result_int[4]~7\ $end
$var wire 1 ;" \Mod0|auto_generated|divider|divider|add_sub_6_result_int[5]~9\ $end
$var wire 1 <" \Mod0|auto_generated|divider|divider|add_sub_6_result_int[6]~11\ $end
$var wire 1 =" \Mod0|auto_generated|divider|divider|add_sub_6_result_int[7]~12_combout\ $end
$var wire 1 >" \Mod0|auto_generated|divider|divider|StageOut[48]~77_combout\ $end
$var wire 1 ?" \Mod0|auto_generated|divider|divider|StageOut[48]~78_combout\ $end
$var wire 1 @" \Mod0|auto_generated|divider|divider|add_sub_7_result_int[1]~0_combout\ $end
$var wire 1 A" \Mod0|auto_generated|divider|divider|StageOut[54]~95_combout\ $end
$var wire 1 B" \Mod0|auto_generated|divider|divider|add_sub_6_result_int[6]~10_combout\ $end
$var wire 1 C" \Mod0|auto_generated|divider|divider|StageOut[54]~79_combout\ $end
$var wire 1 D" \Mod0|auto_generated|divider|divider|StageOut[53]~96_combout\ $end
$var wire 1 E" \Mod0|auto_generated|divider|divider|add_sub_6_result_int[5]~8_combout\ $end
$var wire 1 F" \Mod0|auto_generated|divider|divider|StageOut[53]~80_combout\ $end
$var wire 1 G" \Mod0|auto_generated|divider|divider|StageOut[52]~97_combout\ $end
$var wire 1 H" \Mod0|auto_generated|divider|divider|add_sub_6_result_int[4]~6_combout\ $end
$var wire 1 I" \Mod0|auto_generated|divider|divider|StageOut[52]~81_combout\ $end
$var wire 1 J" \Mod0|auto_generated|divider|divider|StageOut[51]~98_combout\ $end
$var wire 1 K" \Mod0|auto_generated|divider|divider|add_sub_6_result_int[3]~4_combout\ $end
$var wire 1 L" \Mod0|auto_generated|divider|divider|StageOut[51]~82_combout\ $end
$var wire 1 M" \Mod0|auto_generated|divider|divider|StageOut[50]~103_combout\ $end
$var wire 1 N" \Mod0|auto_generated|divider|divider|add_sub_6_result_int[2]~2_combout\ $end
$var wire 1 O" \Mod0|auto_generated|divider|divider|StageOut[50]~83_combout\ $end
$var wire 1 P" \Mod0|auto_generated|divider|divider|StageOut[49]~84_combout\ $end
$var wire 1 Q" \Mod0|auto_generated|divider|divider|add_sub_6_result_int[1]~0_combout\ $end
$var wire 1 R" \Mod0|auto_generated|divider|divider|StageOut[49]~85_combout\ $end
$var wire 1 S" \Mod0|auto_generated|divider|divider|add_sub_7_result_int[1]~1\ $end
$var wire 1 T" \Mod0|auto_generated|divider|divider|add_sub_7_result_int[2]~3\ $end
$var wire 1 U" \Mod0|auto_generated|divider|divider|add_sub_7_result_int[3]~5\ $end
$var wire 1 V" \Mod0|auto_generated|divider|divider|add_sub_7_result_int[4]~7\ $end
$var wire 1 W" \Mod0|auto_generated|divider|divider|add_sub_7_result_int[5]~9\ $end
$var wire 1 X" \Mod0|auto_generated|divider|divider|add_sub_7_result_int[6]~11\ $end
$var wire 1 Y" \Mod0|auto_generated|divider|divider|add_sub_7_result_int[7]~13\ $end
$var wire 1 Z" \Mod0|auto_generated|divider|divider|add_sub_7_result_int[8]~14_combout\ $end
$var wire 1 [" \Mod0|auto_generated|divider|divider|StageOut[57]~86_combout\ $end
$var wire 1 \" \Mod0|auto_generated|divider|divider|add_sub_7_result_int[2]~2_combout\ $end
$var wire 1 ]" \Mod0|auto_generated|divider|divider|StageOut[58]~87_combout\ $end
$var wire 1 ^" \Mod0|auto_generated|divider|divider|add_sub_7_result_int[3]~4_combout\ $end
$var wire 1 _" \Mod0|auto_generated|divider|divider|StageOut[59]~88_combout\ $end
$var wire 1 `" \decoder_S1|Mux6~0_combout\ $end
$var wire 1 a" \Mod0|auto_generated|divider|divider|StageOut[63]~89_combout\ $end
$var wire 1 b" \Mod0|auto_generated|divider|divider|StageOut[60]~90_combout\ $end
$var wire 1 c" \Mod0|auto_generated|divider|divider|StageOut[61]~91_combout\ $end
$var wire 1 d" \decoder_S1|Mux0~0_combout\ $end
$var wire 1 e" \Mod0|auto_generated|divider|divider|add_sub_7_result_int[5]~8_combout\ $end
$var wire 1 f" \Mod0|auto_generated|divider|divider|add_sub_7_result_int[6]~10_combout\ $end
$var wire 1 g" \Mod0|auto_generated|divider|divider|add_sub_7_result_int[7]~12_combout\ $end
$var wire 1 h" \Mod0|auto_generated|divider|divider|add_sub_7_result_int[4]~6_combout\ $end
$var wire 1 i" \decoder_S1|Mux0~1_combout\ $end
$var wire 1 j" \decoder_S1|Mux0~2_combout\ $end
$var wire 1 k" \decoder_S1|Mux6~1_combout\ $end
$var wire 1 l" \decoder_S1|Mux5~0_combout\ $end
$var wire 1 m" \decoder_S1|Mux5~1_combout\ $end
$var wire 1 n" \decoder_S1|Mux4~0_combout\ $end
$var wire 1 o" \decoder_S1|Mux4~1_combout\ $end
$var wire 1 p" \decoder_S1|Mux3~0_combout\ $end
$var wire 1 q" \decoder_S1|Mux3~1_combout\ $end
$var wire 1 r" \decoder_S1|Mux2~0_combout\ $end
$var wire 1 s" \decoder_S1|Mux2~1_combout\ $end
$var wire 1 t" \decoder_S1|Mux1~0_combout\ $end
$var wire 1 u" \decoder_S1|Mux1~1_combout\ $end
$var wire 1 v" \decoder_S1|Mux0~3_combout\ $end
$var wire 1 w" \decoder_S1|Mux0~4_combout\ $end
$var wire 1 x" \Div0|auto_generated|divider|divider|add_sub_3_result_int[1]~1\ $end
$var wire 1 y" \Div0|auto_generated|divider|divider|add_sub_3_result_int[2]~3\ $end
$var wire 1 z" \Div0|auto_generated|divider|divider|add_sub_3_result_int[3]~5\ $end
$var wire 1 {" \Div0|auto_generated|divider|divider|add_sub_3_result_int[4]~6_combout\ $end
$var wire 1 |" \Div0|auto_generated|divider|divider|StageOut[18]~36_combout\ $end
$var wire 1 }" \Div0|auto_generated|divider|divider|add_sub_3_result_int[3]~4_combout\ $end
$var wire 1 ~" \Div0|auto_generated|divider|divider|StageOut[18]~37_combout\ $end
$var wire 1 !# \Div0|auto_generated|divider|divider|StageOut[17]~38_combout\ $end
$var wire 1 "# \Div0|auto_generated|divider|divider|add_sub_3_result_int[2]~2_combout\ $end
$var wire 1 ## \Div0|auto_generated|divider|divider|StageOut[17]~39_combout\ $end
$var wire 1 $# \Div0|auto_generated|divider|divider|StageOut[16]~40_combout\ $end
$var wire 1 %# \Div0|auto_generated|divider|divider|add_sub_3_result_int[1]~0_combout\ $end
$var wire 1 &# \Div0|auto_generated|divider|divider|StageOut[16]~41_combout\ $end
$var wire 1 '# \Div0|auto_generated|divider|divider|StageOut[15]~42_combout\ $end
$var wire 1 (# \Div0|auto_generated|divider|divider|StageOut[15]~43_combout\ $end
$var wire 1 )# \Div0|auto_generated|divider|divider|add_sub_4_result_int[1]~1\ $end
$var wire 1 *# \Div0|auto_generated|divider|divider|add_sub_4_result_int[2]~3\ $end
$var wire 1 +# \Div0|auto_generated|divider|divider|add_sub_4_result_int[3]~5\ $end
$var wire 1 ,# \Div0|auto_generated|divider|divider|add_sub_4_result_int[4]~7_cout\ $end
$var wire 1 -# \Div0|auto_generated|divider|divider|add_sub_4_result_int[5]~8_combout\ $end
$var wire 1 .# \Div0|auto_generated|divider|divider|StageOut[21]~46_combout\ $end
$var wire 1 /# \Div0|auto_generated|divider|divider|add_sub_4_result_int[1]~0_combout\ $end
$var wire 1 0# \Div0|auto_generated|divider|divider|StageOut[21]~47_combout\ $end
$var wire 1 1# \Div0|auto_generated|divider|divider|StageOut[20]~48_combout\ $end
$var wire 1 2# \Div0|auto_generated|divider|divider|StageOut[20]~49_combout\ $end
$var wire 1 3# \Div0|auto_generated|divider|divider|add_sub_5_result_int[1]~1\ $end
$var wire 1 4# \Div0|auto_generated|divider|divider|add_sub_5_result_int[2]~2_combout\ $end
$var wire 1 5# \Div0|auto_generated|divider|divider|StageOut[23]~64_combout\ $end
$var wire 1 6# \Div0|auto_generated|divider|divider|add_sub_4_result_int[3]~4_combout\ $end
$var wire 1 7# \Div0|auto_generated|divider|divider|StageOut[23]~44_combout\ $end
$var wire 1 8# \Div0|auto_generated|divider|divider|StageOut[22]~65_combout\ $end
$var wire 1 9# \Div0|auto_generated|divider|divider|add_sub_4_result_int[2]~2_combout\ $end
$var wire 1 :# \Div0|auto_generated|divider|divider|StageOut[22]~45_combout\ $end
$var wire 1 ;# \Div0|auto_generated|divider|divider|add_sub_5_result_int[2]~3\ $end
$var wire 1 <# \Div0|auto_generated|divider|divider|add_sub_5_result_int[3]~5\ $end
$var wire 1 =# \Div0|auto_generated|divider|divider|add_sub_5_result_int[4]~7_cout\ $end
$var wire 1 ># \Div0|auto_generated|divider|divider|add_sub_5_result_int[5]~8_combout\ $end
$var wire 1 ?# \Div0|auto_generated|divider|divider|StageOut[28]~62_combout\ $end
$var wire 1 @# \Div0|auto_generated|divider|divider|add_sub_5_result_int[3]~4_combout\ $end
$var wire 1 A# \Div0|auto_generated|divider|divider|StageOut[28]~50_combout\ $end
$var wire 1 B# \Div0|auto_generated|divider|divider|StageOut[27]~66_combout\ $end
$var wire 1 C# \Div0|auto_generated|divider|divider|StageOut[27]~51_combout\ $end
$var wire 1 D# \Div0|auto_generated|divider|divider|StageOut[26]~52_combout\ $end
$var wire 1 E# \Div0|auto_generated|divider|divider|add_sub_5_result_int[1]~0_combout\ $end
$var wire 1 F# \Div0|auto_generated|divider|divider|StageOut[26]~53_combout\ $end
$var wire 1 G# \Div0|auto_generated|divider|divider|StageOut[25]~54_combout\ $end
$var wire 1 H# \Div0|auto_generated|divider|divider|StageOut[25]~55_combout\ $end
$var wire 1 I# \Div0|auto_generated|divider|divider|add_sub_6_result_int[1]~1\ $end
$var wire 1 J# \Div0|auto_generated|divider|divider|add_sub_6_result_int[2]~3\ $end
$var wire 1 K# \Div0|auto_generated|divider|divider|add_sub_6_result_int[3]~5\ $end
$var wire 1 L# \Div0|auto_generated|divider|divider|add_sub_6_result_int[4]~7_cout\ $end
$var wire 1 M# \Div0|auto_generated|divider|divider|add_sub_6_result_int[5]~8_combout\ $end
$var wire 1 N# \Div0|auto_generated|divider|divider|StageOut[33]~63_combout\ $end
$var wire 1 O# \Div0|auto_generated|divider|divider|add_sub_6_result_int[3]~4_combout\ $end
$var wire 1 P# \Div0|auto_generated|divider|divider|StageOut[33]~56_combout\ $end
$var wire 1 Q# \Div0|auto_generated|divider|divider|StageOut[32]~67_combout\ $end
$var wire 1 R# \Div0|auto_generated|divider|divider|add_sub_6_result_int[2]~2_combout\ $end
$var wire 1 S# \Div0|auto_generated|divider|divider|StageOut[32]~57_combout\ $end
$var wire 1 T# \Div0|auto_generated|divider|divider|StageOut[31]~58_combout\ $end
$var wire 1 U# \Div0|auto_generated|divider|divider|add_sub_6_result_int[1]~0_combout\ $end
$var wire 1 V# \Div0|auto_generated|divider|divider|StageOut[31]~59_combout\ $end
$var wire 1 W# \Div0|auto_generated|divider|divider|StageOut[30]~60_combout\ $end
$var wire 1 X# \Div0|auto_generated|divider|divider|StageOut[30]~61_combout\ $end
$var wire 1 Y# \Div0|auto_generated|divider|divider|add_sub_7_result_int[1]~1_cout\ $end
$var wire 1 Z# \Div0|auto_generated|divider|divider|add_sub_7_result_int[2]~3_cout\ $end
$var wire 1 [# \Div0|auto_generated|divider|divider|add_sub_7_result_int[3]~5_cout\ $end
$var wire 1 \# \Div0|auto_generated|divider|divider|add_sub_7_result_int[4]~7_cout\ $end
$var wire 1 ]# \Div0|auto_generated|divider|divider|add_sub_7_result_int[5]~8_combout\ $end
$var wire 1 ^# \decoder_S2|Mux6~0_combout\ $end
$var wire 1 _# \decoder_S2|Mux6~1_combout\ $end
$var wire 1 `# \decoder_S2|Mux5~0_combout\ $end
$var wire 1 a# \decoder_S2|Mux5~1_combout\ $end
$var wire 1 b# \decoder_S2|Mux4~0_combout\ $end
$var wire 1 c# \decoder_S2|Mux4~1_combout\ $end
$var wire 1 d# \decoder_S2|Mux3~0_combout\ $end
$var wire 1 e# \decoder_S2|Mux3~1_combout\ $end
$var wire 1 f# \decoder_S2|Mux2~0_combout\ $end
$var wire 1 g# \decoder_S2|Mux2~1_combout\ $end
$var wire 1 h# \decoder_S2|Mux1~0_combout\ $end
$var wire 1 i# \decoder_S2|Mux1~1_combout\ $end
$var wire 1 j# \decoder_S2|Mux0~0_combout\ $end
$var wire 1 k# \decoder_S2|Mux0~1_combout\ $end
$var wire 1 l# number [7] $end
$var wire 1 m# number [6] $end
$var wire 1 n# number [5] $end
$var wire 1 o# number [4] $end
$var wire 1 p# number [3] $end
$var wire 1 q# number [2] $end
$var wire 1 r# number [1] $end
$var wire 1 s# number [0] $end
$var wire 1 t# \ALT_INV_rst~input_o\ $end
$upscope $end
$upscope $end
$enddefinitions $end
#0
$dumpvars
0!
10
01
12
x3
14
15
16
17
18
19
0:
1;
0J
1K
0L
0M
0N
1O
0P
0Q
0R
0S
0T
1U
0V
0W
0X
0Y
0Z
1[
0\
0]
0^
0_
0`
1a
0b
0c
0d
0e
0f
1g
0h
0i
0j
0k
0l
1m
0n
0o
0p
0q
0r
1s
0t
0u
0v
0w
0x
1y
0z
0{
0|
0}
0~
1!!
1"!
0#!
0$!
0%!
0&!
0'!
1(!
0)!
0*!
0+!
0,!
0-!
1.!
1/!
00!
01!
02!
03!
04!
15!
06!
07!
18!
09!
0:!
0;!
0<!
0=!
0>!
0?!
1@!
1A!
1B!
0C!
0D!
0E!
1F!
0G!
0H!
1I!
1J!
0K!
0L!
0M!
0N!
1O!
0P!
0Q!
0R!
1S!
0T!
0U!
0V!
0W!
1X!
1Y!
0Z!
0[!
0\!
1]!
0^!
1_!
0`!
0a!
0b!
0c!
1d!
0e!
0f!
1g!
0h!
0i!
0j!
0k!
1l!
0m!
1n!
1o!
1p!
0q!
0r!
0s!
0t!
0u!
0v!
1w!
0x!
0y!
1z!
0{!
0|!
0}!
0~!
1!"
0""
1#"
0$"
1%"
0&"
1'"
0("
0)"
1*"
0+"
0,"
0-"
0."
0/"
10"
01"
02"
13"
04"
05"
06"
07"
18"
09"
1:"
0;"
1<"
1="
0>"
0?"
1@"
0A"
1B"
0C"
0D"
1E"
0F"
0G"
1H"
0I"
0J"
0K"
0L"
0M"
1N"
0O"
0P"
1Q"
0R"
0S"
1T"
0U"
1V"
0W"
1X"
0Y"
1Z"
0["
1\"
0]"
0^"
0_"
0`"
0a"
0b"
0c"
0d"
1e"
1f"
1g"
1h"
1i"
1j"
0k"
0l"
0m"
0n"
0o"
0p"
0q"
0r"
0s"
0t"
0u"
0v"
1w"
0x"
1y"
0z"
1{"
0|"
0}"
0~"
0!#
1"#
0##
0$#
1%#
0&#
0'#
0(#
0)#
1*#
0+#
1,#
1-#
0.#
1/#
00#
01#
02#
03#
14#
05#
06#
07#
08#
19#
0:#
1;#
0<#
1=#
1>#
0?#
0@#
0A#
0B#
0C#
0D#
1E#
0F#
0G#
0H#
0I#
1J#
0K#
1L#
1M#
0N#
0O#
0P#
0Q#
1R#
0S#
0T#
1U#
0V#
0W#
0X#
0Y#
1Z#
0[#
1\#
1]#
0^#
0_#
0`#
0a#
0b#
0c#
0d#
0e#
0f#
0g#
0h#
0i#
0j#
1k#
0t#
1<
0=
0>
0?
0@
0A
0B
1C
0D
0E
0F
0G
0H
0I
0l#
0m#
0n#
0o#
0p#
0q#
0r#
0s#
1"
0#
0$
0%
0&
0'
0(
1)
0*
0+
0,
0-
0.
0/
$end
#1000
1!
1:
1J
1L
0K
1M
1N
16!
#2000
0!
0:
0J
#3000
1!
1:
1J
0L
17!
0N
08!
1K
0M
1N
18!
19!
06!
09!
16!
#4000
0!
0:
0J
#5000
1!
1:
1J
1L
0K
1M
0N
08!
19!
06!
#6000
0!
0:
0J
#7000
1!
1:
1J
0L
07!
1:!
09!
1;!
1N
18!
1K
0M
0N
19!
0;!
16!
1<!
1=!
0<!
06!
0=!
#8000
0!
0:
0J
#9000
1!
1:
1J
1L
0K
1M
1N
16!
#10000
0!
0:
0J
#11000
1!
1:
1J
0L
17!
0N
08!
1K
0M
1N
18!
09!
1;!
06!
1<!
19!
0;!
16!
0<!
1=!
0=!
#12000
0!
0:
0J
#13000
1!
1:
1J
1L
0K
1M
0N
08!
09!
1;!
06!
1<!
1=!
#14000
0!
0:
0J
#15000
1!
1:
1J
0L
07!
0:!
1>!
0<!
0O
19!
0;!
1N
18!
1K
0M
0N
09!
16!
1<!
1O
1P
0=!
0P
1=!
06!
#16000
0!
0:
0J
#17000
1!
1:
1J
1L
0K
1M
1?!
1C!
1N
0=!
1D!
#18000
0!
0:
0J
#19000
1!
1:
1J
0L
0>!
1E!
0D!
1s#
0<!
1K
0M
0?!
0C!
0N
0F!
1G!
0Y!
1`"
1p"
1r"
1t"
1u"
1s"
1q"
1k"
1H!
1D!
1B
1?
1>
1=
1(
1%
1$
1#
#20000
0!
0:
0J
#21000
1!
1:
1J
1L
0K
1M
1N
16!
#22000
0!
0:
0J
#23000
1!
1:
1J
0L
17!
0N
08!
1K
0M
1N
18!
19!
06!
09!
16!
#24000
0!
0:
0J
#25000
1!
1:
1J
1L
0K
1M
0N
08!
19!
06!
#26000
0!
0:
0J
#27000
1!
1:
1J
0L
07!
1:!
09!
1;!
1N
18!
1K
0M
0N
19!
0;!
16!
1<!
1=!
0<!
06!
0=!
#28000
0!
0:
0J
#29000
1!
1:
1J
1L
0K
1M
1N
16!
#30000
0!
0:
0J
